<?xml version="1.0" encoding="UTF-8" standalone="no"?>
<!DOCTYPE svg PUBLIC "-//W3C//DTD SVG 1.1//EN"
 "http://www.w3.org/Graphics/SVG/1.1/DTD/svg11.dtd">
<!-- Generated by graphviz version 9.0.0 (0)
 -->
<!-- Pages: 1 -->
<svg width="149pt" height="260pt"
 viewBox="0.00 0.00 149.00 260.00" xmlns="http://www.w3.org/2000/svg" xmlns:xlink="http://www.w3.org/1999/xlink">
<g id="graph0" class="graph" transform="scale(1 1) rotate(0) translate(4 256)">
<polygon fill="white" stroke="none" points="-4,4 -4,-256 145,-256 145,4 -4,4"/>
<!-- 4 -->
<g id="node1" class="node">
<title>4</title>
<ellipse fill="#fff7bc" stroke="#fec44f" cx="37" cy="-234" rx="27" ry="18"/>
<text text-anchor="middle" x="37" y="-229.32" font-family="Times,serif" font-size="14.00">4</text>
</g>
<!-- 1 -->
<g id="node2" class="node">
<title>1</title>
<ellipse fill="#deebf7" stroke="#9ecae1" cx="27" cy="-162" rx="27" ry="18"/>
<text text-anchor="middle" x="27" y="-157.32" font-family="Times,serif" font-size="14.00">1</text>
</g>
<!-- 4&#45;&#45;1 -->
<g id="edge1" class="edge">
<title>4&#45;&#45;1</title>
<path fill="none" stroke="black" d="M34.53,-215.7C32.98,-204.85 30.99,-190.92 29.44,-180.1"/>
</g>
<!-- 2 -->
<g id="node3" class="node">
<title>2</title>
<ellipse fill="#e5f5e0" stroke="#a1d99b" cx="54" cy="-90" rx="27" ry="18"/>
<text text-anchor="middle" x="54" y="-85.33" font-family="Times,serif" font-size="14.00">2</text>
</g>
<!-- 4&#45;&#45;2 -->
<g id="edge2" class="edge">
<title>4&#45;&#45;2</title>
<path fill="none" stroke="black" d="M47.24,-217.02C53.12,-206.86 59.94,-193.18 63,-180 68.72,-155.34 63.51,-126 58.97,-107.94"/>
</g>
<!-- 1&#45;&#45;2 -->
<g id="edge5" class="edge">
<title>1&#45;&#45;2</title>
<path fill="none" stroke="black" d="M33.54,-144.05C37.78,-133.05 43.29,-118.76 47.52,-107.79"/>
</g>
<!-- 3 -->
<g id="node5" class="node">
<title>3</title>
<ellipse fill="#efedf5" stroke="#bcbddc" cx="81" cy="-18" rx="27" ry="18"/>
<text text-anchor="middle" x="81" y="-13.32" font-family="Times,serif" font-size="14.00">3</text>
</g>
<!-- 2&#45;&#45;3 -->
<g id="edge6" class="edge">
<title>2&#45;&#45;3</title>
<path fill="none" stroke="black" d="M60.54,-72.05C64.78,-61.05 70.29,-46.76 74.52,-35.79"/>
</g>
<!-- 5 -->
<g id="node4" class="node">
<title>5</title>
<ellipse fill="#fee0d2" stroke="#fc9272" cx="114" cy="-234" rx="27" ry="18"/>
<text text-anchor="middle" x="114" y="-229.32" font-family="Times,serif" font-size="14.00">5</text>
</g>
<!-- 5&#45;&#45;2 -->
<g id="edge3" class="edge">
<title>5&#45;&#45;2</title>
<path fill="none" stroke="black" d="M107.43,-216.18C100.37,-198.23 88.7,-168.97 78,-144 72.75,-131.74 66.53,-118.04 61.74,-107.63"/>
</g>
<!-- 5&#45;&#45;3 -->
<g id="edge4" class="edge">
<title>5&#45;&#45;3</title>
<path fill="none" stroke="black" d="M111.52,-215.59C107.29,-186.04 98.32,-124.19 90,-72 88.09,-60.02 85.8,-46.54 84.01,-36.17"/>
</g>
</g>
</svg>
