module plexus

go 1.22.0

require (
	github.com/bytedance/sonic v1.10.1 // indirect
	github.com/chenzhuoyu/base64x v0.0.0-20230717121745-296ad89f973d // indirect
	github.com/chenzhuoyu/iasm v0.9.0 // indirect
	github.com/devilcove/boltdb v0.1.3 // indirect
	github.com/devilcove/plexus v0.0.0-00010101000000-000000000000 // indirect
	github.com/gabriel-vasile/mimetype v1.4.2 // indirect
	github.com/gin-contrib/sse v0.1.0 // indirect
	github.com/gin-gonic/gin v1.9.1 // indirect
	github.com/go-playground/locales v0.14.1 // indirect
	github.com/go-playground/universal-translator v0.18.1 // indirect
	github.com/go-playground/validator/v10 v10.15.5 // indirect
	github.com/goccy/go-json v0.10.2 // indirect
	github.com/google/go-cmp v0.5.9 // indirect
	github.com/josharian/native v1.1.0 // indirect
	github.com/json-iterator/go v1.1.12 // indirect
	github.com/klauspost/cpuid/v2 v2.2.5 // indirect
	github.com/kr/pretty v0.3.1 // indirect
	github.com/kr/text v0.2.0 // indirect
	github.com/leodido/go-urn v1.2.4 // indirect
	github.com/mattn/go-isatty v0.0.19 // indirect
	github.com/mdlayher/genetlink v1.3.2 // indirect
	github.com/mdlayher/netlink v1.7.2 // indirect
	github.com/mdlayher/socket v0.4.1 // indirect
	github.com/modern-go/concurrent v0.0.0-20180306012644-bacd9c7ef1dd // indirect
	github.com/modern-go/reflect2 v1.0.2 // indirect
	github.com/pelletier/go-toml/v2 v2.1.0 // indirect
	github.com/rogpeppe/go-internal v1.9.0 // indirect
	github.com/twitchyliquid64/golang-asm v0.15.1 // indirect
	github.com/ugorji/go/codec v1.2.11 // indirect
	github.com/vishvananda/netlink v1.1.0 // indirect
	github.com/vishvananda/netns v0.0.0-20191106174202-0a2b9b5464df // indirect
	go.etcd.io/bbolt v1.3.8 // indirect
	golang.org/x/arch v0.5.0 // indirect
	golang.org/x/crypto v0.17.0 // indirect
	golang.org/x/net v0.19.0 // indirect
	golang.org/x/sync v0.5.0 // indirect
	golang.org/x/sys v0.15.0 // indirect
	golang.org/x/text v0.14.0 // indirect
	golang.zx2c4.com/wireguard v0.0.0-20230325221338-052af4a8072b // indirect
	golang.zx2c4.com/wireguard/wgctrl v0.0.0-20230429144221-925a1e7659e6 // indirect
	google.golang.org/protobuf v1.31.0 // indirect
	gopkg.in/yaml.v3 v3.0.1 // indirect
)

replace github.com/devilcove/plexus => /home/mkasun/plexus
